{
    "workbench.colorCustomizations": {
        "editorCursor.background":"#CD01FF",
        "editorCursor.foreground":"#CD01FF"

        // "editor.selectionBackground": "ddd",
        
        
        //"editorCursor.background":"#20FF00"
        

    },
    "editor.minimap.enabled": false,
    "[json]": {
        "editor.defaultFormatter": "esbenp.prettier-vscode"
    },
    "python.defaultInterpreterPath": "/home/xeowhyx/miniconda3/envs/py/bin/python",

    // "editor.formatOnPaste": false,
    // "editor.formatOnSave": true,

    // vid jop

    //trailing
    "editor.renderWhitespace": "all",
    "editor.linkedEditing": true,
    "editor.suggest.insertMode": "replace",
    "editor.acceptSuggestionOnCommitCharacter": false,

    // "files.defaultLanguage": "markdown",

    "explorer.autoReveal": false,

    // 8
    "workbench.tree.indent": 15,
    "workbench.iconTheme": "material-icon-theme",
    "workbench.colorTheme": "Catppuccin Mocha",
    "editor.fontLigatures": false,

    "editor.fontFamily": "JetBrains Mono",
    "window.zoomLevel": 1,
    "editor.fontSize": 15,
    "git.enableSmartCommit": true,


    // "editor.lineHeight": 0,
    // "editor.fontSize":0,

}
